C:\Users\martin\Desktop\framework safety car\src\main\java\OfferPage.java
C:\Users\martin\Desktop\framework safety car\src\main\java\LoginPage.java
C:\Users\martin\Desktop\framework safety car\src\main\java\UploadPage.java
C:\Users\martin\Desktop\framework safety car\src\main\java\BasePage.java
C:\Users\martin\Desktop\framework safety car\src\main\java\InsuranceCalculatorPage.java
C:\Users\martin\Desktop\framework safety car\src\main\java\HomePage.java
C:\Users\martin\Desktop\framework safety car\src\main\java\DriverFactory.java
C:\Users\martin\Desktop\framework safety car\src\main\java\AllRequestsPage.java
